{
    "embeds": [
        {
            "title": "TitleValue",
            "description": "DescriptionValue",
            "color": 29680,
            "fields": [
                {
                    "name": "Torrent Name",
                    "value": "TorrentNameValue"
                },
                {
                    "name": "Categories",
                    "value": "CategoriesValue"
                },
                {
                    "name": "Hash",
                    "value": "HashValue"
                }
            ],
            "footer": {
                "text": "FooterValue"
            },
            "timestamp": "TimestampValue"
        }
    ]
}